Category,Description,Cost ,Price,Unit
Boot,"Lead Boot 4""",24.89,24.89,Each
Boot,"Lead boot 3""",19,19,Each
Boot,"Lead Boot 2""",14.31,14.31,Each
Boot,"Lead Boot 1-1/2""",13.16,13.16,Each
Boot,"Gooseneck 4"" ",32.05,32.05,Each
Boot,"Gooseneck 10""",34.77,34.77,Each
Boot,"Flexi-boot 3""",15.78,15.78,Each
Boot,"Flexi-boot 2""",11.23,11.23,Each
Boot,"Flexi-boot 1-1/2""",10.43,10.43,Each
Boot,Blind Boot Count,150,150,Each
Coating,Unisil primer Part B --Must Use with Part A. Combined A+B cover 20Sq,225.76,225.76,5gal
Coating,Unisil Primer Part A --Must be used with Part B Bucket. Combined A+B covers 20sq,225.76,225.76,5gal
Coating,Unisil HS Silicone --No NDL 1.5gal per sq. 10 yr NDL 2gal per sq. 20yr NDL 3gal per sq,231.19,231.19,5gal
Coating,"Unisil Flashing --Used With Unisil coating system. Used for Vertical Laps, and penetration base. Must use with 6' Fabric",145.18,145.18,2gal
Coating,UCC Cleaner --Used for Cleaning Roofs 1gal per 20sq,193.51,193.51,5gal
Coating,Tropical 996 Bleed Blocker --For mod-bit coating system. 1.5 gal per sq Base Layer,158.69,158.69,5gal
Coating,Tropical 960 Metal primer --Metal primer for 911 system 1/2 gal per 2 squares,139.66,139.66,5gal
Coating,Tropical 951 mastic --Acrylic Mastic for seams and laps and screws used with 911 system 25 lnft per gal 500 srcews per gallon,85.4,85.4,2gal
Coating,Tropical 951 --Acrylic Mastic. for seams screws and laps. use with 911 system. 25 LnFt per gal 500 screws per gallon,162.76,162.76,5gal
Coating,Tropical 9400 --100 LNFT per Gallon for seams and laps,206.28,206.28,2gal
Coating,Tropical 924 Top coat --5gal bucket TPO coat,246.19,246.19,5gal
Coating,Tropical 911 --Acrylic coating. roof must have 1/12 pitch or more. 3gal per sq,118.57,118.57,5gal
Coating,Tropical 652 Roof Wash--For power washing roof before coating. 30:1 mix ratio.,17.03,17.03,1 Gal
Coating,S/B Surface Seal --Used Over HydroStop on Balconies. Also can be used as Coating Per Jakes Approval,244.83,244.83,5 Gallon
Coating,Karnak Resat Mat -- Used with Karnak Aluminum coating,46,46,"6""x300'"
Coating,Karnak 799 roof wash -- roof wash ,48,48,Case Of 6 - 1 Quart Case
Coating,Karnak 298 Alumin-R -- Aluminum Coating. DONT USE Unless you speak tp Jake!!!!! 2gal per Sq,124,124,5gal
Coating,Karnack Karna Flex 502MS -- Used with Karnak Aluminum coating. For penetrations,108,108,3gal
Coating,HydroStop Premium Finish Coat -- Acrylic Coating,437.42,437.42,5gal
Coating,"HydroStop Barrier Guard -- Waterproofing agent. Must include 2 bags of Portland cement per bucket and 40"" fabric and only works on concrete. 4sq per Bucket",461.15,461.15,5gal
Coating,"HydroStop 6"" Fabric -- Can be Used with HydroStop and Tropical Coating Systems For seams and Flashing",60.57,60.57,Roll
Coating,"HydroStop 40"" Fabric --Used with HydroStop waterproofing systems",312.58,312.58,Roll
Coating,HdroStop Butter Grade -- 8 pieces of flashing/drip per bucket,152.15,152.15,2 Gallon
Coating,GAF FlexSeal BLUE Label -- Self Leveling. For sealing flat surface. Use for core drilling holes,14.86,14.86,Tube
Coating,GAF Flex Seal -- Use For Pourable Seal Pockets. Self Leveling. Also can be used as a coating only per Jakes Approval,244.83,244.83,5gal
Coating,Barrier Guard,225.78,225.78,5 Gallon
Coating,"6"" striping fabric -- 150LNFT per roll. For coatings",26.76,26.76,1 Roll
Coating,"40""x336' Fabric",201.42,201.42,Roll
Coating,"40""x100' Fabric Roll",100.7,100.7,Roll
Fasteners,"Wood Grip 2.5"" - Brava --100 Lineal Feet Per Bag",20.34,20.34,Bag
Fasteners,"Quik Drive 2-1/2"" -- 12 SQ Per Box",87.74,87.74,Box
Fasteners,"Drill-tec #15 8"" For Steel Decks",258.69,258.69,Box-500ct
Fasteners,"Drill-tec #15 6"" For Steel Decks",180.52,180.52,Box-500ct
Fasteners,"Drill-Tec #15 5"" For Steel Decks",135.88,135.88,Box-500ct
Fasteners,"Drill-Tec #15 4"" For Steel Decks",263,263,Box-1000ct
Fasteners,"Drill-Tec #15 3"" For Steel Decks",180.52,180.52,Box-1000ct
Fasteners,"Drill-Tec #15 2"" For Steel Decks",92.86,92.86,Box-1000ct
Fasteners,"Drill-tec #15 12"" For Steel Decks",360,360,Box-500ct
Fasteners,"Drill-tec #15 10"" For Steel Decks",262.46,262.46,Box-500ct
Fasteners,"Drill-tec #14 8"" For Wood Decks",214.79,214.79,Box-500ct
Fasteners,"Drill-tec #14 6"" For Steel Decks",163.29,163.29,Box-500ct
Fasteners,"Drill-tec #14 5"" For Wood Decks",161.81,161.81,Box-500ct
Fasteners,"Drill-tec #14 4"" For Wood Decks",161.81,161.81,Box 1000ct
Fasteners,"Drill-tec #14 3"" For Wood Decks",151.99,151.99,Box-1000ct
Fasteners,"Drill-tec #14 2"" For Wood Decks",122.25,122.25,Box-1000ct
Fasteners,"Drill-tec #14 12"" For Wood Decks",148.39,148.39,Box-250ct
Fasteners,"Drill-tec #14 10"" For Wood Decks",450.57,450.57,Box-500ct
Fasteners,Cap Nails -- 45 Square per box,59.56,59.56,Box
Fasteners,8d Coil nails for decking -- 40 SQ Per Box,41.91,41.91,Box
Fasteners,"1-1/4"" Roofing Nail -- 14 SQ per Box",35.32,35.32,Box
Fasteners,"#10 x1.5"" Dade Pancake Screw",20.19,20.19,Box-250
Flashing ,W-Valley,23.81,23.81,Each
Flashing ,"Valley metal Roll -- 16"" wide x 50 feet",76.35,76.35,Roll
Flashing ,Termination Bar w/lip,16.06,16.06,10'
Flashing ,Stucco-stop --10 Lineal feet,9.91,9.91,Each
Flashing ,Drip Edge --  10' Galv 26GA,9.8,9.8,Each
Flashing ,"4x5 ""L"" Flashing Galvanized -- 10 ft piece ",14.14,14.14,Each
Flat,"Flintlastic Two Ply -- Certainteed SA NAIL BASE and SA Cap NOTE: BASE is 1.7 Square roll, CAP is .85 Square Roll-Price is for 2-SQUARE One roll Base/2 Rolls CAP",311.47,311.47,Square
Flat,SAV Base --1.7 SQ Roll,90.85,90.85,Roll
Flat,Liberty Cap Sheet --0.85 Rolls Per Square,84.4,84.4,Roll
Flat,Liberty Base Sheet -- 1.7 SQ Per Roll,80.38,80.38,Roll
Flat,Flintlastic SA Cap -- 0.85 square roll,93.63,93.63,Roll
Flat,Cap Sheet (white) Torch Down -- 0.85 Sq/roll Granulated,67.95,67.95,Sq
Flat,Cap Sheet (white) Peel n' stick -- 0.85 Sq/roll,96.2,96.2,Roll
Flat,Propane Tank - 1 Tank Per 5 SQ,21.1,21.1,Each
Flat,Primer Asphalt --1 can per 30 Lineal feet of drip edge,10.45,10.45,Can
Metal,Z Bar - Snap - 26ga or 24ga Kynar - 10 ft piece,9.64,9.64,Each
Metal,Z Bar - Kynar - Lok --10 ft piece - 26ga and 24 ga,10.83,10.83,Each
Metal,Z Bar - Galvalume - Snap --10 ft piece - 26ga or 24 ga ,8.16,8.16,Each
Metal,Z Bar - 26 ga SMP - Lok --10 ft piece ,7.23,7.23,Each
Metal,Z Bar - 26 ga Galvalume - Lok --10 ft piece ,7.22,7.22,Each
Metal,Z Bar - 24 ga Galvalume - Lok --10 ft piece ,8.43,8.43,Each
Metal,Z Bar - 0.032Alum Kynar - Snap --10 ft piece ,10.92,10.92,Each
Metal,Z Bar - 0.032 Alum Kynar - Lok --10 ft piece ,10.1,10.1,Each
Metal,Valley Metal SMP -- 10 Ft Piece,34.04,34.04,Each
Metal,Valley Metal Kynar 26 Ga -- 10 Ft Piece,40.34,40.34,Each
Metal,Valley Metal Kynar 24 Gauge -- 10 Ft Piece,55.38,55.38,Each
Metal,Valley Metal Galvalume --10 Ft Piece,30.31,30.31,Each
Metal,Valley 26 ga SMP - Lok/Snap -- 10 Ft Piece ,34.04,34.04,Each
Metal,Valley 26 ga Kynar - Lok/Snap -- 10 Ft Piece,40.34,40.34,Each
Metal,Valley 26 ga Galvalume - Lok/Snap -- 10 Ft Piece,26.12,26.12,Each
Metal,Valley 24 ga Kynar - Lok/Snap -- 10 Ft Piece,55.38,55.38,Each
Metal,Valley 24 ga Galvalume - Lok/Snap -- 10 Ft Piece,30.31,30.31,Each
Metal,Valley 0.032 Alum Kynar - Lok/Snap -- 10 Ft Piece,51.57,51.57,Each
Metal,Side/End Wall - 26 ga SMP - Lok -- 10 ft piece,17.02,17.02,Each
Metal,Side/End Wall - 26 ga Kynar - Lok -- 10 ft piece,21.45,21.45,Each
Metal,Side/End Wall - 26 ga Galvalume - Lok -- 10 ft piece,13.35,13.35,Each
Metal,Side/End Wall - 24 ga Kynar - Lok -- 10 ft piece,22.86,22.86,Each
Metal,Side/End Wall - 24 ga Galvalume - Lok -- 10 ft piece,16.78,16.78,Each
Metal,Side/End Wall - 0.032 Alum Kynar - Lok -- 10 ft piece,26.86,26.86,Each
Metal,Side/End Wall 26 Ga SMP -- 10 ft piece,17.72,17.72,Each
Metal,Side/End Wall 26 Ga Galvalume -- 10 ft piece,13.53,13.53,Each
Metal,Side/End Wall 24 Ga Galvalume -- 10 ft piece,21.92,21.92,Each
Metal,Screws Lok/Snap --1 bag per 3 squares,13.31,13.31,Bag
Metal,"Screws (1.5 inch) 5V/Gulf Rib --1.5"" screw for 5V and Gulf Rib -- 1 bag per 3 squares",30,30,Bag
Metal,Roser Metal --Per square cost includes accessories; does not include underlayments,291.37,291.37,Square
Metal,Ridge Cap Stepped- SMP -- 10 Lineal feet,24.72,24.72,Each
Metal,Ridge Cap Stepped- Galvalume -- 10 Lineal feet,20.52,20.52,Each
Metal,Ridge Cap Stepped - Kynar -- 10 Lineal feet,34.34,34.34,Each
Metal,Ridge Cap 26 ga SMP - Lok/Snap -- 10 Lineal feet,25.41,25.41,Each
Metal,Ridge Cap 26 ga Kynar - Lok/Snap -- 10 Lineal feet,30.55,30.55,Each
Metal,Ridge Cap 26 ga Galvalume - Lok/Snap -- 10 Lineal feet,19.35,19.35,Each
Metal,Ridge Cap 24 ga Kynar - Lok/Snap -- 10 Lineal feet,34.34,34.34,Each
Metal,Ridge Cap 24 ga Galvalume - Lok/Snap -- 10 Lineal feet,23.78,23.78,Each
Metal,Ridge Cap 0.032 Alum Kynar - Lok/Snap -- 10 Lineal feet,38.73,38.73,Each
Metal,Rake Edge 26 ga SMP - Lok -- 10 Lineal feet,17.25,17.25,Each
Metal,Rake Edge 26 ga Kynar - Lok -- 10 Lineal feet,21.92,21.92,Each
Metal,Rake Edge 26 ga Galvalume - Lok -- 10 Lineal feet,13.53,13.53,Each
Metal,Rake Edge 24 ga Galvalume (Used for 26 and 24ga) - Snap -- 10 Lineal feet,20.98,20.98,Each
Metal,Rake Edge 24 ga Kynar (Used for 26 or 24ga) - Snap -- 10 Lineal feet,31.9,31.9,Each
Metal,Rake Edge 24 ga Kynar - Lok -- 10 Lineal feet,22.39,22.39,Each
Metal,Rake Edge 24 ga Galvalume - Lok -- 10 Lineal feet,16.09,16.09,Each
Metal,Rake Edge 0.032 Kynar- Snap -- 10 Lineal feet,28.38,28.38,Each
Metal,Rake Edge 0.032 Alum Kynar - Lok -- 10 Lineal feet,25.93,25.93,Each
Metal,Rake Edge - Gulf Rib SMP -- 10 Lineal feet,16.09,16.09,Each
Metal,Rake Edge - Gulf Rib Kynar -- 10 Lineal feet,21.04,21.04,Each
Metal,Rake Edge - Gulf Rib Galvalume -- 10 Lineal feet,13.53,13.53,Each
Metal,Rake Edge - 5V SMP -- 10 Lineal feet,15.15,15.15,Each
Metal,Rake Edge - 5V Kynar -- 10 Lineal feet,18.83,18.83,Each
Metal,Rake Edge - 5V Galvalume -- 10 Lineal feet,13.53,13.53,Each
Metal,"Gulf Snap SMP - Clip System - 26 Ga -16"" Panel - Standing Seam - 1.5"" Rib",167,167,Square
Metal,"Gulf Snap Kynar - Clip System - 26 Ga  -16"" Panel - Standing Seam - 1.5"" Rib",191,191,Square
Metal,"Gulf Snap Kynar - Clip System - 24 Ga - 16"" Panel - Standing Seam - 1.5"" Rib",204,204,Square
Metal,"Gulf Snap Kynar - Clip System - 0.032 Alum - 16"" Panel - Standing Seam - 1.5"" Rib",254,254,Square
Metal,"Gulf Snap Galvalume - Clip System - 26 Ga - 16"" Panel - Standing Seam - 1.5"" Rib",119,119,Square
Metal,"Gulf Snap Galvalume - Clip System - 24 Ga - 16"" Panel - Standing Seam - 1.5"" Rib",129,129,Square
Metal,"Gulf Rib SMP - 26 Ga - 36"" Panel - Gulf Rib - Exposed Fastener ",109,109,Square
Metal,"Gulf Rib Kynar - 26 Ga- 36"" Panel - Gulf Rib - Exposed Fastener ",138,138,Square
Metal,"Gulf Rib Kynar - 24 Ga- 36"" Panel - Gulf Rib - Exposed Fastener ",188,188,Square
Metal,"Gulf Rib Galvalume - 24 Ga 36"" Panel - Gulf Rib - Exposed Fastener ",109,109,Square
Metal,"Gulf Rib Galvalume - 26 Ga- 36"" Panel - Gulf Rib - Exposed Fastener ",84,84,Square
Metal,"Gulf Lok SMP - Nailstrip - 26 Ga -16"" panel - Standing Seam - 1"" rib - Hidden Fastener",167,167,Square
Metal,"Gulf Lok Kynar - Nailstrip - 26 Ga -16"" panel - Standing Seam - 1"" rib - Hidden Fastener",191,191,Square
Metal,"Gulf Lok Kynar - Nailstrip - 24 Ga - 16"" Panel - Standing Seam - 1"" Rib - Hidden Fastener",204,204,Square
Metal,"Gulf Lok Galvalume - Nailstrip - 26 Ga - 16"" panel - Standing Seam - 1"" rib - Hidden Fastener",119,119,Square
Metal,"Gulf Lok Galvalume - Nailstrip - 24 Ga - 16"" panel - Standing Seam - 1"" rib - Hidden Fastener",129,129,Square
Metal,"Gulf Lok Kynar - Nailstrip - 0.032 Alum - 16"" Panel - Standing Seam - 1"" rib - Hidden Fastener",254,254,Square
Metal,Gulf Coast 5V SMP -26 Ga - Exposed Fastener,130,130,Square
Metal,Gulf Coast 5V Kynar - 26 Ga - Exposed Fastener,165,165,Square
Metal,Gulf Coast 5V Kynar - 24 Ga -Exposed Fastener,190,190,Square
Metal,Gulf Coast 5V Kynar - 0.032 Alum  Kynar - Exposed Fastener,240,240,Square
Metal,Gulf Coast 5V Galvalume - 26 Ga - Exposed Fastener,90,90,Square
Metal,Gulf Coast 5V Galvalume - 24 Ga - Exposed Fastener,117,117,Square
Metal,Drip Edge SMP - Lok/Snap -- 10 ft piece - 26 ga SMP,17.96,17.96,Each
Metal,Drip Edge Kynar - Lok/Snap -- 10 ft piece - 26 ga and 24 ga - Kynar,22.86,22.86,Each
Metal,Drip Edge Kynar -- 10' Kynar 26ga and 24ga,15.46,15.46,Each
Metal,Drip Edge Galvalume - Lok/Snap -- 26 ga and 24 ga Galvalume,16.78,16.78,Each
Metal,Drip Edge 0.032 Alum - Lok/Snap -- 10 ft piece - 0.032 Alum Kynar,26.74,26.74,Each
Metal,Drip Edge - SMP -- 10 ft piece,12.12,12.12,Each
Metal,Drip Edge - Galvalume -- 10' Galv 26GA & 24GA,10.26,10.26,Each
Metal,Clips - Snap -- 50 clips per square,14.5,14.5,Square
Metal,Brava Top Ridge -- Each is 17 (add 10% waste),7.8,7.8,Each
Metal,Brava Spanish Tile,359.2,359.2,Square
Metal,Brava Ridge Closure -- Each is 1ft (add 10% waste),2.42,2.42,Each
Metal,Brava Rake Edge -- Each is 16 (add 10% waste),5.92,5.92,Each
Metal,Brava Hip Caps -- Each is 17.5 long (add 10% waste),6.98,6.98,Each
Metal,Brava Eave Starter -- Each is 1 ft (add 10% waste),2.42,2.42,Each
Metal,Brava Bull Nose/Hip Starter -- Each is 17.5 (1 pc to start each hip),12.85,12.85,Each
Metal,"4"" Ridge Metal - Brava",20.28,20.28,Each
Metal,"4"" Ridge Metal",20.28,20.28,Each
Misc,Roller nap,5.36,5.36,Each
Misc,Roller Frame,5.36,5.36,Each
Misc,"Location Surcharge --Bonita, Naples, Sanibel-Captive, Marco",75,75,Square
Misc,GAF Flex Seal Caulk Grade Red Label -- One tube per 10 LNFT of Flashing/Termination Bar. One Tube per Penetration,14.82,14.82,10oz Tube
Misc,Foundation,200.88,200.88,5 Gallon
Misc,Drive Pin - Mason Anchor -- Used to attach metal to concrete walls.,10.7,10.7,100 Per Box
Misc,Decking Plywood -- 2 sheets included,50.3,50.3,Sheet
Misc,Aluminum Downspout (1 Story),60,60,Each
Misc,"6"" Seamless Aluminum Gutter (1 Story and upper entryway application only)",6,6,Linear Foot
Misc,"4"" brush",5.36,5.36,Each
Shingle,Owens-Corning Duration -DESIGNER SERIES,86.27,86.27,Square
Shingle,Owens-Corning Duration --Architectural shingle,85,85,Square
Shingle,OC- WeatherLock Specialty --2 Square roll HT for tile/metal,95.35,95.35,Roll
Shingle,OC- Starter Strip Plus --105 Lineal feet per bundle,32.5,32.5,Bundle
Shingle,"OC WeatherLock ""G"" --2 Sq Roll Granular",55.64,55.64,Roll
Shingle,OC ProEdge Hip and Ridge --30 Lineal feet per bundle,50,50,Bundle
Shingle,IKO Marathon 3Tab -- For Hip & ridge cap 30 linear ft per bundle,23.43,23.43,Bundle
Shingle,IKO Leading Edge Starter -- 118 linear ft per bundle,50.73,50.73,Bundle
Shingle,IKO Leading Edge -- 118 Lineal feet per bundle,39.81,39.81,Bundle
Shingle,IKO Hip/Ridge -- 30 lineal feet per bundle,31.57,31.57,Bundle
Shingle,IKO Cambridge AR Shingle,78,78,Square
Shingle,IKO Cambridge AR -- 3 Bundles Per SQ,80.94,80.94,Square
Shingle,GAF TimberTex -- Color - Premium Hip & ridge cap 17 linear ft per bundle 130 MPH rating with special installation,54.32,54.32,Bundle
Shingle,GAF Timberline Ultra -- Color - 4 Bundle per square,99.05,99.05,Square
Shingle,GAF Timberline HD -- Color 3 Bundle Per square,81,81,Square
Shingle,GAF Timberline American Harvest -- Color 3 Bundle per square,81,81,Square
Shingle,GAF Seal-a-ridge -- Color - 17 linear ft per bundle,41,41,Bundle
shingle,GAF ProStart -- 120 Lineal feet per bundle,42,42,Bundle
Shingle ,Shingle Dump Fees --1 Dump Fee Per 40 Sq,500,500,Each
Tapered,ISO Taper - 1/4 in 12 -- Taper system with plates n' screws,200,200,Square
Tapered,"GAF Y Taper Panel ISO --1/4"" taper system Second panel for taper system",25,25,4x4
Tapered,"GAF X Taper Panel ISO --1/4"" taper First panel for taper system",12.51,12.51,4x4
Tapered,GAF Q Taper Panel ISO -- Panel need to make crickets on flat roofs,19.87,19.87,4x4
Tapered,"GAF C Taper Panel ISO -- Fourth Panel in 1/8"" Taper",25.08,25.08,4x4
Tapered,"GAF 3"" ISO 4x4 -- Used for adhered systems 16sqft per board",22.37,22.37,4'x4' Sheet
Tapered,"GAF 3.5"" ISO 4x8 -- Full Sheets. Best To Use With RhinoBond Systems",57.63,57.63,Sheet
Tapered,"GAF 3.3"" ISO 4x8 -- R19.2 Min need for Commercial Roofs",48,48,4x8
Tapered,"GAF 2"" 4x4 ISO -- Used for Taper systems. Used for fully Adhered systems",16.15,16.15,4x4
Tapered,"GAF 2.0"" ISO 4x8",32.3,32.3,4x8
Tapered,"GAF 1.0"" ISO 4x8",26.59,26.59,4x8
Tapered,"GAF 0.5"" HD ISO 4x8 --Cover Board for TPO Systems",21.6,21.6,4x8
Tile,Tile Foam --One Tank per 5 Squares,192.6,192.6,Each
Tile,Tile Dump Fees,40,40,Sq
Tile,Oxide Standard --1 bag per 5 bags mortar,27.29,27.29,Bag
Tile,Oxide Premium --1 bag per 5 bags mortar,29.96,29.96,Bag
Tile,Eave Riser-STD -- 10 LF,5.89,5.89,Each
Tile,Eave riser- Flat -- 10 LF,5.89,5.89,Each
Tile,Crown Tile Ridge -- Standard/Premium/Custom Blends,3.79,3.79,Each
Tile,"Crown Tile -- Tuscany, Sanibel, Standard/Premium/Custom Blends Windsor Slate, Shake, S-Shake, Standard/Premium/Custom Blends",201.89,201.89,Square
Tile,Crown Oxide -- Standard or PREMIUM 1 bag per 5 bags of mortar,30.28,30.28,Each
Tile,Cement -- 1.2 bags per 10 lineal feet,10.7,10.7,Bag
Tile,Battens -- 2 SQ per bundle,10.7,10.7,Bundle
Tile,"6"" Ridge Metal",24.07,24.07,Each
Tile,"5"" Ridge Metal",21.4,21.4,Each
TPO,TPO Walkway Roll --Walkway Mat. Used to make walkway on roof to A/C and hoods,617.37,617.37,Roll
TPO,"TPO Split Pipe Boot 6""-8"" --For Pipes we cant slide boot over",55.62,55.62,Each
TPO,"TPO Split pipe boot 3""-5"" -- For Pipes we cant slide boot over.",42.8,42.8,Each
TPO,"TPO Split Pipe Boot 1""-2"" --For Pipes we cant slide boot over.",40.23,40.23,Each
TPO,TPO Red Primer For Applying Coating to TPO,116.87,116.87,Gallon
TPO,TPO Primer --For heat weld cover tape and porable seal pocket. One Gallon Per 200 LNFT of Drip edge. One Gallon per 10 porable seal pockets,62.18,62.18,Gallon
TPO,TPO Coated Metal --For Making Custom Flashing,288.46,288.46,Sheet
TPO,Pourable Sealant TPO -- For Pourable sealer Pockets,104.51,104.51,Gallon
TPO,OlyBond Spot Shot --For Fully Adhered TPO. One case does 20sq,225.76,225.76,Case Of 4
TPO,GAF WB Bonding Adhesive TPO --500 sqft per bucket. Water Based Adhesive. Use where VOC glue isn't aloud.,311,311,5gal
TPO,GAF Universal TPO corner -- For inside and outside corners,12.53,12.53,Piece
TPO,GAF Two-Part Splatter Foam A+B TPO ISO (Code:CR-20) -- Used to Adhere ISO Board to Concrete Decks or ISO to ISO. Used With Fleece Back TPO 15sq Per Kit,905.25,905.25,Full Kit
TPO,GAF TPO Water Blocker -- For Sealing Back Side of TPO to Walls and other Details. Can Be Used with other Systems. Can Not be Exposed to the SUN,10.07,10.07,Tube
TPO,GAF TPO Rhinobond Plate - Plates needed for RhinoBond System,239.35,239.35,Box
TPO,GAF TPO Pre-formed scupper,102.72,102.72,"4""x6""x12"""
TPO,"GAF TPO Pourable sealer pocket -- Used for A/C lines, Electrical lines and other odd hard to seal areas",61.58,61.58,Piece
TPO,GAF TPO Heat Weld Cover Tape -- Heat Weld cover tape for TPO drip edge,334.29,334.29,Roll
TPO,GAF TPO Cleaner -- For cleaning TPO.,44.41,44.41,Gallon
TPO,"GAF TPO Boot 1""-6"" -- For Plumbing Stacks",47.95,47.95,1
TPO,GAF TPO Amber Bonding Adhesive -- 300 SqFt per bucket. High VOC glue. Ask Jake before bidding in job (some jobs can't have a VOC glue),168.7,168.7,5gal
TPO,GAF TPO .60mil 5x100 -- Smooth Back TPO. For Rhinobond System And Glue down System,418.86,418.86,5x100 Roll
TPO,GAF TPO .60 10x100 -- Smooth Back. Used for RhinoBond and Glue Down Systems,708.92,708.92,Roll
TPO,GAF ISO Plate -- ISO Plate for Mod Bit and Adhered TPO,147.76,147.76,"Box 1,000"
TPO,GAF Barbed Seam Plate -- For TPO Seam on Mechanical System,319.03,319.03,"Box 1,000"
TPO,"GAF B Taper Panel ISO -- Third Panel in 1/8"" Taper",21,21,4x4
TPO,"GAF AA Taper Panel ISO -- First Panel for 1/8"" Taper",9.43,9.43,4x4
TPO,"GAF A Taper Panel ISO -- Second Panel For 1/8"" Taper",15.4,15.4,4x4
TPO,GAF TPO T-Patch --For T seams ans other small Patching. *Not to be Repaired with*,1.93,1.93,Piece
TPO,GAF TPO Detail Roll -- For Making Custom Detail Pieces,354.13,354.13,Roll
TPO,GAF TPO -Cut edge seal --For Sealing Cut Edges of TPO. One per job,15.14,15.14,One
TPO,"Dens Deck 1/4"" -- Cement Board to be used on wood deck/balcony. Used with TPO, Mod-bit",18.1,18.1,4x8
TPO,"Dens Deck 1/4"" -- For under TPO, Mod-Bit",9.99,9.99,4x4
TPO,"Dens Deck 1/2"" -- Used Under TPO Mod-Bit and HydroStop. Gives Class A Fire rating",11.76,11.76,4x4
TPO,50mil Extreme Fleece Back TPO 5x100',492.21,492.21,5x100'
TPO,.80mil Fleece Back TPO 5x100,775.77,775.77,5x100
TPO,.80mil Fleece Back TPO 10x100,"1,551.53","1,551.53",10x100
TPO,.80mil Extreme TPO 5x100',706.23,706.23,5x100'
TPO,.80mil Extreme TPO 10x100',"1,412.43","1,412.43",10x100'
TPO,.80mil Extreme Fleece Back TPO 10x100',"1,786.94","1,786.94",10x100'
TPO,.80mil Extreme Fleece Back TPO 5x100,893.47,893.47,5x100
TPO,.60mil Fleece Back TPO 5x100,486.87,486.87,5x100
TPO,.60mil Fleece Back TPO 10x100',973.72,973.72,10x100'
TPO,.50mil Extreme TPO 5x100',323.36,323.36,5x100'
TPO,.50mil Extreme TPO 10x100',652.71,652.71,10x100
TPO,.50mil Extreme Fleece Back TPO 10x100',984.42,984.42,10x100'
Underlayment,Titanium PSU 30 HT --1.7 Sq roll,88.27,88.27,Roll
Underlayment,Rhinoroof U20 -- 9 SQ Per Roll,57.51,57.51,Roll
Underlayment,Polyglass TU Plus - 5V  -- 1.7 SQ Roll,88.69,88.69,Roll
Underlayment,Polyglass TU P - Tile -- 1.7 SQ Roll,80.64,80.64,Roll
Underlayment,PolyGlass IR-XE -- 1.7 SQ Roll,54.32,54.32,Roll
Underlayment,GAF WeatherWatch -- Granulated - 1.7 square per roll,51.5,51.5,Roll
Underlayment,Boral Tile Seal Single Ply -- Single PLY Tile Seal HT 2 Square roll,87.69,87.69,Roll
Underlayment,Boral Citadel PLUS -- Use as base in two-ply system with Tile Seal Cap 2 Square roll,89.88,89.88,Roll
Underlayment,30# Felt --1 ROLL PER EVERY 100 LF OF VALLEY,27.13,27.13,Roll
Underlayment,30# Felt,29.84,29.84,2sq Roll
Vent,Off-Ridge Vent Painted --4 Foot,65.28,65.28,Each
Vent,GAF Cobra Ridge Vent -- 4 lineal feet per piece,10.17,10.17,Each
Vent,GAF 8'x8' TPO Vent -- Vent for TPO roofs.,56,56,Each
Vent,G.A.F. Hip VENT -- 4' Stick- includes labor for ripping ventilation slot plus installation.,17.88,17.88,Each
Vent,End plug Aluminum Ridge,3.49,3.49,Each
Vents,Ridge vent Aluminum -- 10 Lineal feet,23.01,23.01,Each
Warranty,Silver Pledge --Up to 50 SQ per unit cost,150,150,Each
Warranty,Golden Pledge - Residential,9,9,Square
